aaaaaaArray
(
    [name] => Diep Minh Dat
    [email] => datdiep81@gmail.com
    [phone] => 1221313131321
    [address] => Tk 38/18 Võ Văn Kiệt
    [purpose_of_visit] => for tourism
    [type_of_visa] => 1 month single
    [arrival_airport] => Sân bay Tân Sơn Nhất (HCM)
    [device_type] => desktop
    [date_create] => 2017-05-04 17:11:45
    [source] => other
    [campaign] => other
    [network_id] => ,5,
    [token] => 2e0da644350b7fbc07861731b2cc1e67
)
